alu_tb.vcd
$date
	Fri Oct 25 15:01:02 2024
$end
$version
	Icarus Verilog
$end
$timescale
	100ps
$end
$scope module alu_tb $end
$scope module uut $end
$var wire 1 ! i_acumulator_ce $end
$var wire 1 " i_clk $end
$var wire 3 # i_operation_code [2:0] $end
$var wire 8 $ i_register_file [7:0] $end
$var wire 3 % i_register_file_ce [2:0] $end
$var wire 4 & i_register_file_mux_addr [3:0] $end
$var wire 1 ' i_rst $end
$var reg 3 ( current_operation [2:0] $end
$var reg 8 ) o_acumulator [7:0] $end
$var reg 8 * o_alu [7:0] $end
$var reg 1 + o_carry $end
$var reg 8 , register_file_2_alu [7:0] $end
$scope begin p_acumulator $end
$upscope $end
$scope begin p_alu $end
$upscope $end
$scope begin p_register_file_mux $end
$upscope $end
$scope begin p_register_file_write $end
$scope begin $ivl_for_loop0 $end
$var integer 32 - i [31:0] $end
$upscope $end
$upscope $end
$upscope $end
$upscope $end
$enddefinitions $end
$comment Show the parameter values. $end
$dumpall
$end
#0
$dumpvars
b11 -
b0 ,
0+
b0 *
b0 )
b0 (
1'
b0 &
b0 %
b101 $
b0 #
0"
1!
$end
#50
b101 *
b101 ,
0'
1"
#100
0"
#150
b1010 *
b101 )
1"
#200
0"
#250
b1010 )
b101 *
b1 (
b1 #
1"
#300
0"
#350
b101 )
b101 *
b10 (
b10 #
1"
#400
0"
#450
b11 (
b11 #
1"
#500
0"
#550
b0 *
b100 (
b100 #
1"
#600
0"
#650
b0 )
b11111111 *
b101 (
b101 #
1"
#700
0"
#750
b11111111 )
b101 *
b110 (
b110 #
1"
#800
0"
#850
b101 )
b111 (
b111 #
1"
#900
0"
#950
b1010 *
b0 (
b0 #
1"
#1000
0"
#1050
b1010 )
b101 *
b1 (
b1 #
1"
#1100
0"
#1150
b101 )
b101 *
b10 (
b10 #
1"
